FileName
null
Variab,txt
Fmcs,txt
Fmcs,txt
Fmcs,txt
Fmcs,txt
Fmcs,txt
Fmcs,txt
Hasc,txt
Hasc,txt
Hasc,txt
Hasc,txt
Hasc,txt
Mcslrc,txt
Mcslrc,txt
Mcslrc,txt
Mcslrc,txt
Mcslrc,txt
Mcslrc,txt
Mcslrc,txt
Mcslrc,txt
Mcslrc,txt
Mcslrc,txt
Mcslrc,txt
Mmmfm,txt
Mmmfm,txt
Mmmfm,txt
Mmmfm,txt
Mmmfm,txt
Ammmip,txt
Ammmip,txt
Ammmip,txt
Ammmip,txt
Ammmip,txt
Ammmip,txt
Ammmip,txt
Ammmip,txt
Ammmip,txt
Ammmip,txt
Ammmip,txt
Ammmip,txt
Ammmip,txt
Ammmip,txt
Ammmip,txt
Ammmip,txt
Icgvp,txt
Icgvp,txt
Icgvp,txt
Icgvp,txt
Icgvp,txt
Olcpc,txt
Olcpc,txt
Olcpc,txt
Olcpc,txt
Pesn,txt
Pesn,txt
Pesn,txt
Pesn,txt
S,dat
S,dat
S,dat
S,dat
S,dat
S,dat
S,dat
S,dat
S,dat
S,dat
S,dat
S,dat
S,dat
S,dat
S,dat
S,dat
S,dat
S,dat
S,dat
S,dat
S,dat
S,dat
S,dat
S,dat
S,dat
S,dat
S,dat
S,dat
S,dat
S,dat
S,dat
S,dat
S,dat
S,dat
S,dat
S,dat
S,dat
S,dat
S,dat
S,dat
S,dat
S,dat
Ams,txt
Ams,txt
Ams,txt
Ams,txt
Ams,txt
Ams,txt
Ams,txt
Ams,txt
Ams,txt
Ams,txt
Ams,txt
Ams,txt
Cpmsip,txt
Cpmsip,txt
Cpmsip,txt
Cpmsip,txt
Cpmsip,txt
Mrmmf,txt
Mrmmf,txt
Mrmmf,txt
Mrmmf,txt
Mrmmf,txt
Mrmmf,txt
Mrmmf,txt
Mrmmf,txt
Mrmmf,txt
Mrsa,txt
Mrsa,txt
Mrsa,txt
Mrsa,txt
Mrsa,txt
Mrsa,txt
Mrsa,txt
Mrsa,txt
Mrsa,txt
Mrsa,txt
Mrsa,txt
Mrsa,txt
Mrsa,txt
Mrsa,txt
Mrsa,txt
Mrsa,txt
Mrsa,txt
Mrsa,txt
Mrsa,txt
Mrsa,txt
Mrsa,txt
Mrsa,txt
Mrsa,txt
Mrsa,txt
Mrsa,txt
Mrsa,txt
Mrsa,txt
Pmmip,txt
Jfsd,txt
Jfsd,txt
Jfsd,txt
Jfsd,txt
Jfsd,txt
Jfsd,txt
Jfsd,txt
Jfsd,txt
Jfsd,txt
Jfsd,txt
Jfsd,txt
Jfsd,txt
Masm,txt
Masm,txt
Masm,txt
Masm,txt
Mgpms,txt
Mgpms,txt
Mgpms,txt
Mgpms,txt
Mgpms,txt
Mgpms,txt
Mgpms,txt
Mgpms,txt
Mgpms,txt
Mgpms,txt
Mgpms,txt
Mgpms,txt
Pcmo,txt
Pcmo,txt
Pcmo,txt
Pcmo,txt
Pcmo,txt
Pcmo,txt
Rjbb,txt
Rjbb,txt
Rjbb,txt
Rjbb,txt
Rjbb,txt
Rjbb,txt
Rjbb,txt
Rjbb,txt
Rjbb,txt
Rjbb,txt
Rjbb,txt
Rjbb,txt
Aast,txt
Aast,txt
Aast,txt
Aast,txt
Aast,txt
Aast,txt
Aast,txt
Aast,txt
Aast,txt
Aast,txt
Aast,txt
Aast,txt
Aast,txt
Aast,txt
Aast,txt
Aast,txt
Aast,txt
Aast,txt
Aast,txt
Aast,txt
Aast,txt
Aast,txt
Aast,txt
Aast,txt
Aast,txt
Aast,txt
Aast,txt
Aast,txt
Aast,txt
Aast,txt
Aast,txt
Aast,txt
Aast,txt
Aast,txt
Aast,txt
Aast,txt
Aast,txt
Aast,txt
Aast,txt
Aast,txt
Aast,txt
Aast,txt
Aast,txt
Aast,txt
Aast,txt
Aast,txt
Agjpip,txt
Agjpip,txt
Apsca,txt
Apsca,txt
Apsca,txt
Apsca,txt
Ar,txt
Ar,txt
Ar,txt
Ar,txt
Moar,txt
Moar,txt
Moar,txt
Moar,txt
Moar,txt
Moar,txt
Moar,txt
Moar,txt
Moar,txt
Moar,txt
Moar,txt
Tffm,txt
Tffm,txt
Tffm,txt
Tffm,txt
Tffm,txt
Tffm,txt
Tffm,txt
Tffm,txt
Tffm,txt
Tffm,txt
Tffm,txt
Tffm,txt
Tffm,txt
Tffm,txt
Tffm,txt
Tffm,txt
Isn,r,txt
Isn,r,txt
Isn,r,txt
Mabp,txt
Mabp,txt
Mabp,txt
Mabp,txt
Mabp,txt
Mabp,txt
Mabp,txt
Mabp,txt
Mabp,txt
Mabp,txt
Mabp,txt
Mabp,txt
Mabp,txt
Mabp,txt
Mabp,txt
Mabp,txt
Mabp,txt
Mabp,txt
Mabp,txt
Mabp,txt
Mabp,txt
Mabp,txt
Mabp,txt
Mabp,txt
Mabp,txt
Mabp,txt
Mabp,txt
Mabp,txt
Mabp,txt
Mabp,txt
Mabp,txt
Mabp,txt
Mabp,txt
Mabp,txt
Mabp,txt
Mabp,txt
Mabp,txt
Mabp,txt
Mabp,txt
Mabp,txt
Mabp,txt
Mabp,txt
Mabp,txt
Mabp,txt
Mabp,txt
Mabp,txt
Mabp,txt
Mabp,txt
Mabp,txt
Mabp,txt
Mabp,txt
Mabp,txt
Mabp,txt
Mabp,txt
Mag,txt
Mag,txt
Mag,txt
Mag,txt
Mamss,txt
Mamss,txt
Mamss,txt
Mamss,txt
Mamss,txt
Mamss,txt
Mamss,txt
Mamss,txt
Mamss,txt
Mamss,txt
Marg,txt
Marg,txt
Marg,txt
Marg,txt
Marg,txt
Marg,txt
Marg,txt
Marg,txt
Marg,txt
Marg,txt
Marg,txt
Marg,txt
Marg,txt
Marg,txt
Marg,txt
Marg,txt
Marg,txt
Marg,txt
Marg,txt
Marg,txt
Marg,txt
Marg,txt
Marg,txt
Marg,txt
Marg,txt
Marg,txt
Marg,txt
Marg,txt
Mjlp,txt
Mjlp,txt
Mjlp,txt
Mjlp,txt
Mjlp,txt
Mjlp,txt
Mjlp,txt
Mjlp,txt
Mjlp,txt
Mjlp,txt
Mjmar,txt
Mjmar,txt
Mjmar,txt
Mjmar,txt
Mjmar,txt
Mjmar,txt
Mjmar,txt
Mjmar,txt
Mjmar,txt
Mjmar,txt
Mjmar,txt
Mjmar,txt
Mjmar,txt
Mjmar,txt
Mjmar,txt
Mjmar,txt
Mjmar,txt
Mjmar,txt
Mjmar,txt
Mjmar,txt
Mjmar,txt
Mjmar,txt
Mjmar,txt
Mjmar,txt
Mjmar,txt
Mjmar,txt
Mjmar,txt
Mjmar,txt
Mjmar,txt
Mjmar,txt
Mjmar,txt
Mjmar,txt
Mjmar,txt
Mjmar,txt
Mjmar,txt
Mjmar,txt
Mlmbo,txt
Mlmbo,txt
Mlmbo,txt
Mlmbo,txt
Mlmbo,txt
Mlmbo,txt
Mlmbo,txt
Act,txt
Act,txt
Act,txt
Act,txt
Act,txt
Act,txt
Adls,txt
Adls,txt
Adls,txt
Adls,txt
Adls,txt
Adls,txt
Adls,txt
Adls,txt
Adls,txt
Adls,txt
Adls,txt
Adls,txt
Agjpip,txt
Alje,txt
Alje,txt
Alje,txt
Alje,txt
Am,txt
Am,txt
Am,txt
Amba,txt
Amba,txt
Amba,txt
Amba,txt
Amba,txt
Amrc,txt
Amrc,txt
Amrc,txt
Amrc,txt
Amrc,txt
Amrc,txt
Amrc,txt
Amrc,txt
Amrc,txt
Amrc,txt
Amrc,txt
Amrc,txt
Amrc,txt
Amrc,txt
Amrc,txt
Amrc,txt
Amrc,txt
Amrc,txt
Amrc,txt
Amrc,txt
Amrc,txt
Caft,txt
Caft,txt
Caft,txt
Caft,txt
Chw,txt
Chw,txt
Chw,txt
Chw,txt
Chw,txt
Chw,txt
Cs,txt
Cs,txt
Cs,txt
Cs,txt
Cs,txt
Cs,txt
Cs,txt
Cs,txt
Cs,txt
Cs,txt
Drfs,txt
Drfs,txt
Drfs,txt
Drfs,txt
Drfs,txt
Drfs,txt
Drfs,txt
Drfs,txt
Mmo,txt
Mmo,txt
Mmo,txt
Mmo,txt
Mmo,txt
Mmo,txt
Mmo,txt
Mmo,txt
Rb,txt
Rb,txt
Rb,txt
Rb,txt
Rb,txt
Rb,txt
Rb,txt
Rb,txt
Rb,txt
Rb,txt
Amrc,txt
Amrc,txt
Amrc,txt
Amrc,txt
Amrc,txt
Amrc,txt
Amrc,txt
Amrc,txt
Amrc,txt
Amrc,txt
Amrc,txt
Amrc,txt
Amrc,txt
Amrc,txt
Amrc,txt
Amrc,txt
Amrc,txt
Amrc,txt
Amrc,txt
Pcmo,txt
Pcmo,txt
Pcmo,txt
Pcmo,txt
Pcmo,txt
Pcmo,txt
Pcmo,txt
Pcmo,txt
Pcmo,txt
Pcmo,txt
Pcmo,txt
Pcmo,txt
Pcmo,txt
Pcmo,txt
Pcmo,txt
Pcmo,txt
Pcmo,txt
Pcmo,txt
Pcmo,txt
Pcmo,txt
Pcmo,txt
Pcmo,txt
Pcmo,txt
Pcmo,txt
Pcmo,txt
Pcmo,txt
Pmntls,txt
Ramc,txt
Ramc,txt
Ramc,txt
Ramc,txt
Ramc,txt
Ramc,txt
Ramc,txt
Ramc,txt
Ramc,txt
Ramc,txt
Ramc,txt
Ramc,txt
Ramc,txt
Ramc,txt
Ramc,txt
Ramc,txt
Rmfd,txt
Rmfd,txt
Rmfd,txt
Rmfd,txt
Rmfd,txt
Rmfd,txt
Rmfd,txt
Rmfd,txt
Rmfd,txt
Rmfd,txt
Rmfd,txt
Rmfd,txt
Rmfd,txt
Rmfd,txt
Rmsm,txt
Rmsm,txt
Rmsm,txt
Rmsm,txt
Rmsm,txt
Rmsm,txt
Rmsm,txt
Rmsm,txt
Rmsm,txt
Rmsm,txt
Rmsm,txt
Rmsm,txt
Rmsm,txt
Rmsm,txt
Rss,txt
Rss,txt
Rpmt,txt
Rpmt,txt
Scc,txt
Scc,txt
Scc,txt
Rpmt,txt
Rpmt,txt
Fss,txt
Fss,txt
Fss,txt
Fss,txt
Fss,txt
Fss,txt
Fss,txt
Fss,txt
Fss,txt
Fss,txt
Fss,txt
Fss,txt
Fss,txt
Jmft,txt
Jmft,txt
Jmft,txt
Jmft,txt
Jmft,txt
Jmft,txt
Jmft,txt
Jmft,txt
Jmft,txt
Jmft,txt
Jmft,txt
Lm,txt
Lm,txt
Lm,txt
Lm,txt
Lm,txt
Lm,txt
Lm,txt
Mcmm,txt
Mcmm,txt
Mcmm,txt
Mcmm,txt
Mcmm,txt
Mcmm,txt
Mcmm,txt
Mcmm,txt
Mcmm,txt
Mcmm,txt
Mcmm,txt
Mcmp,txt
Mcmp,txt
Mcmp,txt
Mcmp,txt
Mcmp,txt
Mcmp,txt
Mcps,txt
Mcps,txt
Mcps,txt
Mcslr,txt
Mcslr,txt
Mcslrc,txt
Mcslrc,txt
Mcslrc,txt
Mcslrc,txt
Mcslrc,txt
Mcslrc,txt
Mcslrc,txt
Mcslrc,txt
Mcslrc,txt
Mcslrc,txt
Mcslrc,txt
Mcslrc,txt
Mcslrc,txt
Mcslrc,txt
Mcslrc,txt
Mcslrc,txt
Mcslrc,txt
Mcslrc,txt
Mcslrc,txt
Mcslrc,txt
Mcslrc,txt
Mcsp,txt
Mcsp,txt
Mcsp,txt
Mcsp,txt
Mcsp,txt
Mcsp,txt
Mcsp,txt
Mcsp,txt
Mcsp,txt
Megsp,txt
Megsp,txt
Megsp,txt
Megsp,txt
Megsp,txt
Megsp,txt
Megsp,txt
Mepfp,txt
Mepfp,txt
Mepfp,txt
Mescn,txt
Mescn,txt
Mescn,txt
Mescn,txt
Mescn,txt
Mescn,txt
Mescn,txt
Mescn,txt
Mescn,txt
Mescn,txt
Mescn,txt
Mescn,txt
Mescn,txt
Mfnp,txt
Mfnp,txt
Mfnp,txt
Mfnp,txt
Mgbr,txt
Mgbr,txt
Mjfgs,txt
Mjfgs,txt
Mjfgs,txt
Mjfgs,txt
Mjfgs,txt
Mmbms,txt
Mmbms,txt
Mmbms,txt
Mmbms,txt
Mmbms,txt
Mmbms,txt
Mmbms,txt
Mmbms,txt
Mmbms,txt
Mmbms,txt
Mmbms,txt
Mmbms,txt
Mmbms,txt
Mmbms,txt
Mmbms,txt
Mmbms,txt
Mmbms,txt
Mmbms,txt
Mmbms,txt
Mmbms,txt
Mmbms,txt
Mmbms,txt
Mmbms,txt
Mmbms,txt
Mmbms,txt
Mmbms,txt
Mmbms,txt
Mmbms,txt
Mmbms,txt
Mmbms,txt
Mmbms,txt
Mmbms,txt
Mmbms,txt
Mmbms,txt
Mmbms,txt
Mmbms,txt
Mmbms,txt
Aast,txt
Aast,txt
Aast,txt
Aast,txt
Aast,txt
Aast,txt
Aast,txt
S,dat
S,dat
S,dat
S,dat
S,dat
S,dat
S,dat
S,dat
S,dat
S,dat
S,dat
S,dat
S,dat
S,dat
S,dat
S,dat
S,dat
S,dat
S,dat
S,dat
S,dat
S,dat
S,dat
S,dat
S,dat
S,dat
S,dat
S,dat
S,dat
S,dat
S,dat
S,dat
S,dat
S,dat
S,dat
S,dat
S,dat
S,dat
S,dat
S,dat
S,dat
S,dat
S,dat
S,dat
S,dat
S,dat
S,dat
S,dat
S,dat
S,dat
S,dat
S,dat
S,dat
S,dat
S,dat
S,dat
S,dat
S,dat
S,dat
S,dat
S,dat
S,dat
S,dat
S,dat
S,dat
S,dat
S,dat
S,dat
S,dat
S,dat
S,dat
S,dat
S,dat
S,dat
S,dat
S,dat
S,dat
S,dat
S,dat
S,dat
S,dat
S,dat
S,dat
S,dat
S,dat
S,dat
S,dat
S,dat
S,dat
S,dat
S,dat
S,dat
S,dat
S,dat
S,dat
S,dat
S,dat
S,dat
S,dat
S,dat
S,dat
S,dat
S,dat
S,dat
S,dat
S,dat
S,dat
S,dat
S,dat
S,dat
S,dat
S,dat
S,dat
S,dat
S,dat
S,dat
S,dat
S,dat
S,dat
S,dat
S,dat
S,dat
S,dat
S,dat
S,dat
S,dat
S,dat
S,dat
S,dat
S,dat
S,dat
S,dat
S,dat
S,dat
S,dat
S,dat
S,dat
S,dat
S,dat
S,dat
S,dat
S,dat
S,dat
S,dat
S,dat
S,dat
S,dat
S,dat
S,dat
S,dat
S,dat
S,dat
S,dat
S,dat
S,dat
S,dat
S,dat
S,dat
S,dat
S,dat
S,dat
S,dat
S,dat
S,dat
S,dat
S,dat
S,dat
S,dat
S,dat
S,dat
S,dat
S,dat
S,dat
S,dat
S,dat
S,dat
S,dat
S,dat
S,dat
S,dat
S,dat
S,dat
S,dat
S,dat
S,dat
S,dat
S,dat
S,dat
S,dat
S,dat
S,dat
S,dat
S,dat
S,dat
S,dat
S,dat
S,dat
S,dat
S,dat
S,dat
S,dat
S,dat
S,dat
S,dat
S,dat
S,dat
S,dat
S,dat
S,dat
S,dat
S,dat
S,dat
S,dat
S,dat
S,dat
S,dat
S,dat
S,dat
S,dat
S,dat
S,dat
S,dat
S,dat
S,dat
S,dat
S,dat
S,dat
S,dat
S,dat
S,dat
S,dat
S,dat
S,dat
S,dat
S,dat
S,dat
S,dat
S,dat
S,dat
S,dat
S,dat
S,dat
S,dat
S,dat
S,dat
S,dat
S,dat
S,dat
S,dat
S,dat
S,dat
S,dat
S,dat
S,dat
S,dat
S,dat
S,dat
S,dat
S,dat
S,dat
S,dat
S,dat
S,dat
S,dat
S,dat
S,dat
S,dat
S,dat
S,dat
S,dat
S,dat
S,dat
S,dat
S,dat
S,dat
S,dat
S,dat
S,dat
S,dat
S,dat
S,dat
S,dat
S,dat
S,dat
S,dat
S,dat
S,dat
S,dat
S,dat
S,dat
S,dat
S,dat
S,dat
S,dat
S,dat
S,dat
S,dat
S,dat
S,dat
S,dat
S,dat
S,dat
S,dat
S,dat
S,dat
S,dat
S,dat
S,dat
S,dat
S,dat
S,dat
S,dat
S,dat
S,dat
S,dat
S,dat
S,dat
S,dat
S,dat
S,dat
S,dat
S,dat
S,dat
S,dat
S,dat
S,dat
S,dat
S,dat
S,dat
S,dat
S,dat
S,dat
S,dat
S,dat
S,dat
S,dat
S,dat
S,dat
S,dat
S,dat
S,dat
S,dat
S,dat
S,dat
S,dat
S,dat
S,dat
S,dat
S,dat
S,dat
S,dat
S,dat
S,dat
S,dat
S,dat
S,dat
S,dat
S,dat
S,dat
S,dat
S,dat
S,dat
S,dat
S,dat
S,dat
S,dat
S,dat
S,dat
S,dat
S,dat
S,dat
S,dat
S,dat
S,dat
S,dat
S,dat
S,dat
S,dat
S,dat
S,dat
S,dat
S,dat
S,dat
S,dat
S,dat
S,dat
S,dat
S,dat
S,dat
S,dat
S,dat
S,dat
S,dat
S,dat
S,dat
S,dat
S,dat
S,dat
S,dat
S,dat
S,dat
S,dat
S,dat
S,dat
S,dat
S,dat
S,dat
S,dat
S,dat
S,dat
S,dat
S,dat
S,dat
S,dat
S,dat
S,dat
S,dat
S,dat
S,dat
S,dat
S,dat
S,dat
S,dat
S,dat
S,dat
S,dat
S,dat
S,dat
S,dat
S,dat
S,dat
S,dat
S,dat
S,dat
S,dat
S,dat
S,dat
S,dat
S,dat
S,dat
S,dat
S,dat
S,dat
S,dat
S,dat
S,dat
S,dat
S,dat
S,dat
S,dat
S,dat
S,dat
S,dat
S,dat
S,dat
S,dat
S,dat
S,dat
S,dat
S,dat
S,dat
S,dat
S,dat
S,dat
S,dat
S,dat
S,dat
S,dat
S,dat
S,dat
S,dat
S,dat
S,dat
S,dat
S,dat
S,dat
S,dat
S,dat
S,dat
S,dat
S,dat
S,dat
S,dat
S,dat
S,dat
S,dat
S,dat
S,dat
S,dat
S,dat
S,dat
S,dat
S,dat
S,dat
S,dat
S,dat
S,dat
S,dat
S,dat
S,dat
S,dat
S,dat
S,dat
S,dat
S,dat
S,dat
S,dat
S,dat
S,dat
S,dat
S,dat
S,dat
S,dat
S,dat
S,dat
S,dat
S,dat
S,dat
S,dat
S,dat
S,dat
S,dat
S,dat
S,dat
S,dat
S,dat
S,dat
S,dat
S,dat
S,dat
S,dat
S,dat
S,dat
S,dat
S,dat
S,dat
S,dat
S,dat
S,dat
S,dat
S,dat
S,dat
S,dat
S,dat
S,dat
S,dat
S,dat
S,dat
S,dat
S,dat
S,dat
S,dat
S,dat
S,dat
S,dat
S,dat
S,dat
S,dat
S,dat
S,dat
S,dat
S,dat
S,dat
S,dat
S,dat
S,dat
S,dat
S,dat
S,dat
S,dat
S,dat
S,dat
S,dat
S,dat
S,dat
S,dat
S,dat
S,dat
S,dat
S,dat
S,dat
S,dat
S,dat
S,dat
S,dat
S,dat
S,dat
S,dat
S,dat
S,dat
S,dat
S,dat
S,dat
S,dat
S,dat
S,dat
S,dat
S,dat
S,dat
S,dat
S,dat
S,dat
S,dat
S,dat
S,dat
S,dat
S,dat
S,dat
S,dat
S,dat
S,dat
S,dat
S,dat
S,dat
S,dat
S,dat
S,dat
S,dat
S,dat
S,dat
S,dat
S,dat
S,dat
S,dat
S,dat
S,dat
S,dat
S,dat
S,dat
S,dat
S,dat
S,dat
S,dat
S,dat
S,dat
S,dat
S,dat
S,dat
S,dat
S,dat
S,dat
S,dat
S,dat
S,dat
S,dat
S,dat
S,dat
S,dat
S,dat
S,dat
S,dat
S,dat
S,dat
S,dat
S,dat
S,dat
S,dat
S,dat
S,dat
S,dat
S,dat
S,dat
S,dat
S,dat
S,dat
S,dat
S,dat
S,dat
S,dat
S,dat
S,dat
S,dat
S,dat
S,dat
S,dat
S,dat
S,dat
S,dat
S,dat
S,dat
S,dat
S,dat
S,dat
S,dat
S,dat
S,dat
S,dat
S,dat
S,dat
S,dat
S,dat
S,dat
S,dat
S,dat
S,dat
S,dat
S,dat
S,dat
S,dat
S,dat
S,dat
S,dat
S,dat
S,dat
S,dat
S,dat
S,dat
S,dat
S,dat
S,dat
S,dat
S,dat
S,dat
S,dat
S,dat
S,dat
S,dat
S,dat
S,dat
S,dat
S,dat
S,dat
S,dat
S,dat
S,dat
S,dat
S,dat
S,dat
S,dat
S,dat
S,dat
S,dat
S,dat
S,dat
S,dat
S,dat
S,dat
S,dat
S,dat
S,dat
S,dat
S,dat
S,dat
S,dat
S,dat
S,dat
S,dat
S,dat
S,dat
S,dat
S,dat
S,dat
S,dat
S,dat
S,dat
S,dat
S,dat
S,dat
S,dat
S,dat
S,dat
S,dat
S,dat
S,dat
S,dat
S,dat
S,dat
S,dat
S,dat
S,dat
S,dat
S,dat
S,dat
S,dat
S,dat
S,dat
S,dat
S,dat
S,dat
S,dat
S,dat
S,dat
S,dat
S,dat
S,dat
S,dat
S,dat
S,dat
S,dat
S,dat
S,dat
S,dat
S,dat
S,dat
S,dat
S,dat
S,dat
S,dat
S,dat
S,dat
S,dat
S,dat
S,dat
S,dat
S,dat
S,dat
S,dat
S,dat
S,dat
S,dat
S,dat
S,dat
S,dat
S,dat
S,dsp
S,dsp
S,dsp
S,dsp
S,dsp
S,dsp
S,dsp
S,dsp
S,dsp
S,dsp
S,dsp
S,dsp
S,dsp
S,dsp
S,dsp
S,dsp
S,dsp
S,dsp
S,dsp
S,dsp
S,dsp
S,dsp
S,dsp
S,dsp
S,dsp
S,dsp
S,dsp
S,dsp
S,dsp
S,dsp
S,dsp
S,dsp
S,dsp
S,dsp
S,dsp
S,dsp
S,dsp
S,dsp
S,dsp
S,dsp
S,dsp
S,dsp
S,dsp
S,dsp
S,dsp
S,dsp
S,dsp
S,dsp
S,dsp
S,dsp
S,dsp
S,dsp
S,dsp
S,dsp
S,dsp
S,dsp
S,dsp
S,dsp
S,dsp
S,dsp
S,dsp
S,dsp
S,dsp
S,dsp
S,dsp
S,dsp
S,dsp
S,dsp
S,dsp
S,dsp
S,dsp
S,dsp
S,dsp
S,dsp
S,dsp
S,dsp
S,dsp
S,dsp
S,dsp
S,dsp
S,dsp
S,dsp
S,dsp
S,dsp
S,dsp
S,dsp
S,dsp
S,dsp
S,dsp
S,dsp
S,dsp
S,dsp
S,dsp
S,dsp
S,dsp
S,dsp
S,dsp
S,dsp
S,dsp
S,dsp
S,dsp
S,dsp
S,dsp
S,dsp
S,dsp
S,dsp
S,dsp
S,dsp
S,dsp
S,dsp
S,dsp
S,dsp
S,dsp
S,dsp
S,dsp
S,dsp
S,dsp
S,dsp
S,dsp
S,dsp
S,dsp
S,dsp
S,dsp
S,dsp
S,dsp
S,dsp
S,dsp
S,dsp
S,dsp
S,dsp
S,dsp
S,dsp
S,dsp
S,dsp
S,dsp
S,dsp
S,dsp
S,dsp
S,dsp
S,dsp
S,dsp
S,dsp
S,dsp
S,dsp
S,dsp
S,dsp
S,dsp
S,dsp
S,dsp
S,dsp
S,dsp
S,dsp
S,dsp
S,dsp
S,dsp
S,dsp
S,dsp
S,dsp
S,dsp
S,dsp
S,dsp
S,dsp
S,dsp
S,dsp
S,dsp
S,dsp
S,dsp
S,dsp
S,dsp
S,dsp
S,dsp
S,dsp
S,dsp
S,dsp
S,dsp
S,dsp
S,dsp
S,dsp
S,dsp
S,dsp
S,dsp
S,dsp
S,dsp
S,dsp
S,dsp
S,dsp
S,dsp
S,dsp
S,dsp
S,dsp
S,dsp
S,dsp
S,dsp
S,dsp
S,dsp
S,dsp
S,dsp
S,dsp
S,dsp
S,dsp
S,dsp
S,dsp
S,dsp
S,dsp
S,dsp
S,dsp
S,dsp
S,dsp
S,dsp
S,dsp
S,dsp
S,dsp
S,dsp
S,dsp
S,dsp
S,dsp
S,dsp
S,dsp
S,dsp
S,dsp
S,dsp
S,dsp
S,dsp
S,dsp
S,dsp
S,dsp
S,dsp
S,dsp
S,dsp
S,dsp
S,dsp
S,dsp
S,dsp
S,dsp
S,dsp
S,dsp
S,dsp
S,dsp
S,dsp
S,dsp
S,dsp
S,dsp
S,dsp
S,dsp
S,dsp
S,dsp
S,dsp
S,dsp
S,dsp
S,dsp
S,dsp
S,dsp
S,dsp
S,dsp
S,dsp
S,dsp
S,dsp
S,dsp
S,dsp
S,dsp
S,dsp
S,dsp
S,dsp
S,dsp
S,dsp
S,dsp
S,dsp
S,dsp
S,dsp
S,dsp
S,dsp
S,dsp
S,dsp
S,dsp
S,dsp
S,dsp
S,dsp
S,dsp
S,dsp
S,dsp
S,dsp
S,dsp
S,dsp
S,dsp
S,dsp
S,dsp
S,dsp
S,dsp
S,dsp
S,dsp
S,dsp
S,dsp
S,dsp
S,dsp
S,dsp
S,dsp
S,dsp
S,dsp
S,dsp
S,dsp
S,dsp
S,dsp
S,dsp
S,dsp
S,dsp
S,dsp
S,dsp
S,dsp
S,dsp
S,dsp
S,dsp
S,dsp
S,dsp
S,dsp
S,dsp
S,dsp
S,dsp
S,dsp
S,dsp
S,dsp
S,dsp
S,dsp
S,dsp
S,dsp
S,dsp
S,dsp
S,dsp
S,dsp
S,dsp
S,dsp
S,dsp
S,dsp
S,dsp
S,dsp
S,dsp
S,dsp
S,dsp
S,dsp
S,dsp
S,dsp
S,dsp
S,dsp
S,dsp
S,dsp
S,dsp
S,dsp
S,dsp
S,dsp
S,dsp
S,dsp
S,dsp
S,dsp
S,dsp
S,dsp
S,dsp
S,dsp
S,dsp
S,dsp
S,dsp
S,dsp
S,dsp
S,dsp
S,dsp
S,dsp
S,dsp
S,dsp
S,dsp
S,dsp
S,dsp
S,dsp
S,dsp
S,dsp
S,dsp
S,dsp
S,dsp
S,dsp
S,dsp
S,dsp
S,dsp
S,dsp
S,dsp
S,dsp
S,dsp
S,dsp
S,dsp
S,dsp
S,dsp
S,dsp
S,dsp
S,dsp
S,dsp
S,dsp
S,dsp
S,dsp
S,dsp
S,dsp
S,dsp
S,dsp
S,dsp
S,dsp
S,dsp
S,dsp
S,dsp
S,dsp
S,dsp
S,dsp
S,dsp
S,dsp
S,dsp
S,dsp
S,dsp
S,dsp
S,dsp
S,dsp
S,dsp
S,dsp
S,dsp
S,dsp
S,dsp
S,dsp
S,dsp
S,dsp
S,dsp
S,dsp
S,dsp
S,dsp
S,dsp
S,dsp
S,dsp
S,dsp
S,dsp
S,dsp
S,dsp
S,dsp
S,dsp
S,dsp
S,dsp
S,dsp
S,dsp
S,dsp
S,dsp
S,dsp
S,dsp
S,dsp
S,dsp
S,dsp
S,dsp
S,dsp
S,dsp
S,dsp
S,dsp
S,dsp
S,dsp
S,dsp
S,dsp
S,dsp
S,dsp
S,dsp
S,dsp
S,dsp
S,dsp
S,dsp
S,dsp
S,dsp
S,dsp
S,dsp
S,dsp
S,dsp
S,dsp
S,dsp
S,dsp
S,dsp
S,dsp
S,dsp
S,dsp
S,dsp
S,dsp
S,dsp
S,dsp
S,dsp
S,dsp
S,dsp
S,dsp
S,dsp
S,dsp
S,dsp
S,dsp
S,dsp
S,dsp
S,dsp
S,dsp
S,dsp
S,dsp
S,dsp
S,dsp
S,dsp
S,dsp
S,dsp
S,dsp
S,dsp
S,dsp
S,dsp
S,dsp
S,dsp
S,dsp
S,dsp
S,dsp
S,dsp
S,dsp
S,dsp
S,dsp
S,dsp
S,dsp
S,dsp
S,dsp
S,dsp
S,dsp
S,dsp
S,dsp
S,dsp
